{
  "$schema": "../../node_modules/ng-packagr/ng-package.schema.json",
  "dest": "../../dist/component-library",
  "lib": {
    "entryFile": "src/public-api.ts"
  },
  "allowedNonPeerDependencies": ["@pragma-dev-kit/pragma-ds"]
}
