{
  "timestamp": "2024-12-11T00:20:26",
  "compiler": {
    "name": "@stencil/core",
    "version": "3.4.2",
    "typescriptVersion": "5.0.4"
  },
  "components": [
    {
      "filePath": "./src/components/pds-accordion/pds-accordion.tsx",
      "encapsulation": "shadow",
      "tag": "pds-accordion",
      "readme": "# pds-accordion\n\n\n",
      "docs": "",
      "docsTags": [],
      "usage": {},
      "props": [
        {
          "name": "disable",
          "type": "boolean",
          "mutable": false,
          "attr": "disable",
          "reflectToAttr": false,
          "docs": "Indica si el Accordion está deshabilitado.",
          "docsTags": [],
          "default": "false",
          "values": [
            {
              "type": "boolean"
            }
          ],
          "optional": false,
          "required": false
        },
        {
          "name": "icon",
          "type": "string",
          "mutable": false,
          "attr": "icon",
          "reflectToAttr": false,
          "docs": "Nombre del ícono que se muestra en el encabezado del Accordion.",
          "docsTags": [],
          "values": [
            {
              "type": "string"
            }
          ],
          "optional": false,
          "required": false
        },
        {
          "name": "open",
          "type": "boolean",
          "mutable": false,
          "attr": "open",
          "reflectToAttr": false,
          "docs": "Indica si el Accordion está abierto de forma predeterminada.",
          "docsTags": [],
          "default": "false",
          "values": [
            {
              "type": "boolean"
            }
          ],
          "optional": false,
          "required": false
        },
        {
          "name": "size",
          "type": "\"block\" | \"default\"",
          "mutable": false,
          "attr": "size",
          "reflectToAttr": false,
          "docs": "Tamaño del Accordion.",
          "docsTags": [],
          "default": "\"default\"",
          "values": [
            {
              "value": "block",
              "type": "string"
            },
            {
              "value": "default",
              "type": "string"
            }
          ],
          "optional": false,
          "required": false
        },
        {
          "name": "text",
          "type": "string",
          "mutable": false,
          "attr": "text",
          "reflectToAttr": false,
          "docs": "Texto que se muestra en el encabezado del Accordion.",
          "docsTags": [],
          "values": [
            {
              "type": "string"
            }
          ],
          "optional": false,
          "required": false
        }
      ],
      "methods": [],
      "events": [],
      "listeners": [],
      "styles": [],
      "slots": [],
      "parts": [],
      "dependents": [],
      "dependencies": [
        "pds-icon"
      ],
      "dependencyGraph": {
        "pds-accordion": [
          "pds-icon"
        ]
      }
    },
    {
      "filePath": "./src/components/pds-avatar/pds-avatar.tsx",
      "encapsulation": "shadow",
      "tag": "pds-avatar",
      "readme": "# pds-avatar\n\n\n",
      "docs": "",
      "docsTags": [],
      "usage": {},
      "props": [
        {
          "name": "icon",
          "type": "string",
          "mutable": false,
          "attr": "icon",
          "reflectToAttr": false,
          "docs": "URL del icono a mostrar en el avatar.",
          "docsTags": [],
          "values": [
            {
              "type": "string"
            }
          ],
          "optional": false,
          "required": false
        },
        {
          "name": "initials",
          "type": "string",
          "mutable": false,
          "attr": "initials",
          "reflectToAttr": false,
          "docs": "Iniciales que se mostrarán en el avatar si no se proporciona `url`.",
          "docsTags": [],
          "default": "'PD'",
          "values": [
            {
              "type": "string"
            }
          ],
          "optional": false,
          "required": false
        },
        {
          "name": "size",
          "type": "\"large\" | \"medium\" | \"small\" | \"x-large\"",
          "mutable": false,
          "attr": "size",
          "reflectToAttr": true,
          "docs": "Refleja el tamaño del avatar.",
          "docsTags": [],
          "default": "'medium'",
          "values": [
            {
              "value": "large",
              "type": "string"
            },
            {
              "value": "medium",
              "type": "string"
            },
            {
              "value": "small",
              "type": "string"
            },
            {
              "value": "x-large",
              "type": "string"
            }
          ],
          "optional": false,
          "required": false
        },
        {
          "name": "typeInitials",
          "type": "\"text-purple\" | \"text-purple-light\" | \"text-white\"",
          "mutable": false,
          "attr": "type-initials",
          "reflectToAttr": true,
          "docs": "Refleja el tipo de iniciales que se muestran en el avatar.",
          "docsTags": [],
          "default": "'text-purple'",
          "values": [
            {
              "value": "text-purple",
              "type": "string"
            },
            {
              "value": "text-purple-light",
              "type": "string"
            },
            {
              "value": "text-white",
              "type": "string"
            }
          ],
          "optional": false,
          "required": false
        },
        {
          "name": "url",
          "type": "string",
          "mutable": false,
          "attr": "url",
          "reflectToAttr": false,
          "docs": "URL de la imagen del avatar.",
          "docsTags": [],
          "values": [
            {
              "type": "string"
            }
          ],
          "optional": false,
          "required": false
        }
      ],
      "methods": [],
      "events": [],
      "listeners": [],
      "styles": [],
      "slots": [],
      "parts": [],
      "dependents": [],
      "dependencies": [],
      "dependencyGraph": {}
    },
    {
      "filePath": "./src/components/pds-breadcrumb/pds-breadcrumb.tsx",
      "encapsulation": "shadow",
      "tag": "pds-breadcrumb",
      "readme": "# pds-breadcrumb\n\n\n",
      "docs": "",
      "docsTags": [],
      "usage": {},
      "props": [
        {
          "name": "disabled",
          "type": "boolean",
          "mutable": false,
          "attr": "disabled",
          "reflectToAttr": false,
          "docs": "Indica si el Breadcrumb está deshabilitado.",
          "docsTags": [],
          "values": [
            {
              "type": "boolean"
            }
          ],
          "optional": false,
          "required": false
        },
        {
          "name": "items",
          "type": "BreadcrumbItem[]",
          "mutable": false,
          "reflectToAttr": false,
          "docs": "Lista de elementos de Breadcrumb.",
          "docsTags": [],
          "default": "[\n    {label: \"Home\", link: \"/\"}\n  ]",
          "values": [
            {
              "type": "BreadcrumbItem[]"
            }
          ],
          "optional": false,
          "required": false
        },
        {
          "name": "type",
          "type": "\"standar\" | \"underline\"",
          "mutable": false,
          "attr": "type",
          "reflectToAttr": false,
          "docs": "Tipo de Breadcrumb.",
          "docsTags": [],
          "default": "'standar'",
          "values": [
            {
              "value": "standar",
              "type": "string"
            },
            {
              "value": "underline",
              "type": "string"
            }
          ],
          "optional": false,
          "required": false
        }
      ],
      "methods": [],
      "events": [],
      "listeners": [],
      "styles": [],
      "slots": [],
      "parts": [],
      "dependents": [],
      "dependencies": [],
      "dependencyGraph": {}
    },
    {
      "filePath": "./src/components/pds-button/pds-button.tsx",
      "encapsulation": "shadow",
      "tag": "pds-button",
      "readme": "# pds-button\n\n\n",
      "docs": "",
      "docsTags": [],
      "usage": {},
      "props": [
        {
          "name": "disabled",
          "type": "boolean",
          "mutable": false,
          "attr": "disabled",
          "reflectToAttr": true,
          "docs": "Establece el botón como desactivado (disabled).",
          "docsTags": [],
          "default": "false",
          "values": [
            {
              "type": "boolean"
            }
          ],
          "optional": false,
          "required": false
        },
        {
          "name": "href",
          "type": "string",
          "mutable": false,
          "attr": "href",
          "reflectToAttr": false,
          "docs": "Establece la URL del enlace. Si se establece, el botón se renderizará como una etiqueta de ancla (a).",
          "docsTags": [],
          "values": [
            {
              "type": "string"
            }
          ],
          "optional": false,
          "required": false
        },
        {
          "name": "rel",
          "type": "string",
          "mutable": false,
          "attr": "rel",
          "reflectToAttr": false,
          "docs": "Indica el tipo de enlace.",
          "docsTags": [],
          "values": [
            {
              "type": "string"
            }
          ],
          "optional": false,
          "required": false
        },
        {
          "name": "size",
          "type": "\"medium\" | \"small\"",
          "mutable": false,
          "attr": "size",
          "reflectToAttr": true,
          "docs": "El tamaño del botón.",
          "docsTags": [],
          "values": [
            {
              "value": "medium",
              "type": "string"
            },
            {
              "value": "small",
              "type": "string"
            }
          ],
          "optional": false,
          "required": false
        },
        {
          "name": "target",
          "type": "\"_blank\" | \"_parent\" | \"_self\" | \"_top\"",
          "mutable": false,
          "attr": "target",
          "reflectToAttr": false,
          "docs": "Establece el destino del enlace. Se utiliza cuando se establece la propiedad href.",
          "docsTags": [],
          "default": "'_self'",
          "values": [
            {
              "value": "_blank",
              "type": "string"
            },
            {
              "value": "_parent",
              "type": "string"
            },
            {
              "value": "_self",
              "type": "string"
            },
            {
              "value": "_top",
              "type": "string"
            }
          ],
          "optional": false,
          "required": false
        },
        {
          "name": "type",
          "type": "\"button\" | \"reset\" | \"submit\"",
          "mutable": false,
          "attr": "type",
          "reflectToAttr": false,
          "docs": "El tipo de botón. Usa `\"submit\"` para enviar datos de formulario nativos.",
          "docsTags": [],
          "default": "'button'",
          "values": [
            {
              "value": "button",
              "type": "string"
            },
            {
              "value": "reset",
              "type": "string"
            },
            {
              "value": "submit",
              "type": "string"
            }
          ],
          "optional": false,
          "required": false
        },
        {
          "name": "variant",
          "type": "\"primary\" | \"secondary\" | \"tertiary\"",
          "mutable": false,
          "attr": "variant",
          "reflectToAttr": true,
          "docs": "La variante de color del botón",
          "docsTags": [],
          "default": "'primary'",
          "values": [
            {
              "value": "primary",
              "type": "string"
            },
            {
              "value": "secondary",
              "type": "string"
            },
            {
              "value": "tertiary",
              "type": "string"
            }
          ],
          "optional": false,
          "required": false
        }
      ],
      "methods": [],
      "events": [],
      "listeners": [],
      "styles": [
        {
          "name": "--background",
          "annotation": "prop",
          "docs": "Fondo del botón."
        },
        {
          "name": "--background-activated",
          "annotation": "prop",
          "docs": "Fondo del botón cuando se presiona."
        },
        {
          "name": "--background-disabled",
          "annotation": "prop",
          "docs": "Fondo del botón cuando está deshabilitado."
        },
        {
          "name": "--background-hover",
          "annotation": "prop",
          "docs": "fondo del botón al pasar el mouse."
        },
        {
          "name": "--border",
          "annotation": "prop",
          "docs": "Borde del botón."
        },
        {
          "name": "--border-disabled",
          "annotation": "prop",
          "docs": "Borde del botón cuando está deshabilitado."
        },
        {
          "name": "--border-radius",
          "annotation": "prop",
          "docs": "Radio del borde del botón."
        },
        {
          "name": "--box-shadow",
          "annotation": "prop",
          "docs": "Sombra del botón."
        },
        {
          "name": "--box-shadow-activated",
          "annotation": "prop",
          "docs": "Sombra del botón cuando se presiona."
        },
        {
          "name": "--box-shadow-disabled",
          "annotation": "prop",
          "docs": "Sombra del botón cuando está deshabilitado."
        },
        {
          "name": "--box-shadow-hover",
          "annotation": "prop",
          "docs": "Sombra del botón al pasar el mouse."
        },
        {
          "name": "--color",
          "annotation": "prop",
          "docs": "Color del texto del botón."
        },
        {
          "name": "--color-activated",
          "annotation": "prop",
          "docs": "Color del texto del botón cuando se presiona."
        },
        {
          "name": "--color-disabled",
          "annotation": "prop",
          "docs": "Color del texto del botón cuando está deshabilitado."
        },
        {
          "name": "--color-hover",
          "annotation": "prop",
          "docs": "Color del texto del botón cuando se hace hover."
        },
        {
          "name": "--font",
          "annotation": "prop",
          "docs": "Fuente con el formato: font-style font-variant font-weight font-size/line-height font-family;"
        },
        {
          "name": "--font-family",
          "annotation": "prop",
          "docs": "Familia tipográfica del botón."
        },
        {
          "name": "--height",
          "annotation": "prop",
          "docs": "Altura del botón."
        },
        {
          "name": "--justify",
          "annotation": "prop",
          "docs": "Justifica el contenido del botón."
        },
        {
          "name": "--letter-spacing",
          "annotation": "prop",
          "docs": "Espaciado entre letras del botón."
        },
        {
          "name": "--padding-horizontal",
          "annotation": "prop",
          "docs": "Relleno superior e inferior del botón.."
        },
        {
          "name": "--padding-vertical",
          "annotation": "prop",
          "docs": "Relleno izquierdo y derecho del botón."
        },
        {
          "name": "--text-transform",
          "annotation": "prop",
          "docs": "Transformación de texto del botón."
        },
        {
          "name": "--transition",
          "annotation": "prop",
          "docs": "Transición del botón."
        }
      ],
      "slots": [],
      "parts": [],
      "dependents": [],
      "dependencies": [],
      "dependencyGraph": {}
    },
    {
      "filePath": "./src/components/pds-calendar/pds-calendar.tsx",
      "encapsulation": "shadow",
      "tag": "pds-calendar",
      "readme": "# pds-calendar\n\n\n",
      "docs": "",
      "docsTags": [],
      "usage": {},
      "props": [],
      "methods": [],
      "events": [],
      "listeners": [],
      "styles": [],
      "slots": [],
      "parts": [],
      "dependents": [],
      "dependencies": [],
      "dependencyGraph": {}
    },
    {
      "filePath": "./src/components/pds-card/pds-card.tsx",
      "encapsulation": "shadow",
      "tag": "pds-card",
      "readme": "# pds-card\n\n\n",
      "docs": "",
      "docsTags": [
        {
          "name": "slot",
          "text": "default - Content is placed between the named slots if provided without a slot."
        }
      ],
      "usage": {},
      "props": [
        {
          "name": "size",
          "type": "\"default\" | \"large\" | \"small\"",
          "mutable": false,
          "attr": "size",
          "reflectToAttr": true,
          "docs": "Tamaño del Card.",
          "docsTags": [],
          "default": "'default'",
          "values": [
            {
              "value": "default",
              "type": "string"
            },
            {
              "value": "large",
              "type": "string"
            },
            {
              "value": "small",
              "type": "string"
            }
          ],
          "optional": false,
          "required": false
        }
      ],
      "methods": [],
      "events": [],
      "listeners": [],
      "styles": [],
      "slots": [
        {
          "name": "default",
          "docs": "Content is placed between the named slots if provided without a slot."
        }
      ],
      "parts": [],
      "dependents": [],
      "dependencies": [],
      "dependencyGraph": {}
    },
    {
      "filePath": "./src/components/pds-checkbox/pds-checkbox.tsx",
      "encapsulation": "shadow",
      "tag": "pds-checkbox",
      "readme": "# pds-checkbox\n\n\n",
      "docs": "",
      "docsTags": [
        {
          "name": "slot",
          "text": "default - The label text to associate with the checkbox."
        },
        {
          "name": "part",
          "text": "container - The container for the checkbox mark."
        },
        {
          "name": "part",
          "text": "mark - The checkmark used to indicate the checked state."
        }
      ],
      "usage": {},
      "props": [
        {
          "name": "checked",
          "type": "boolean",
          "mutable": true,
          "attr": "checked",
          "reflectToAttr": true,
          "docs": "If `true`, the checkbox is selected.",
          "docsTags": [],
          "default": "false",
          "values": [
            {
              "type": "boolean"
            }
          ],
          "optional": false,
          "required": false
        },
        {
          "name": "disabled",
          "type": "boolean",
          "mutable": false,
          "attr": "disabled",
          "reflectToAttr": true,
          "docs": "If `true`, the user cannot interact with the checkbox.",
          "docsTags": [],
          "default": "false",
          "values": [
            {
              "type": "boolean"
            }
          ],
          "optional": false,
          "required": false
        },
        {
          "name": "iconColor",
          "type": "string",
          "mutable": false,
          "attr": "icon-color",
          "reflectToAttr": false,
          "docs": "",
          "docsTags": [],
          "default": "'white'",
          "values": [
            {
              "type": "string"
            }
          ],
          "optional": false,
          "required": false
        },
        {
          "name": "iconName",
          "type": "string",
          "mutable": false,
          "attr": "icon-name",
          "reflectToAttr": false,
          "docs": "",
          "docsTags": [],
          "default": "'check-b'",
          "values": [
            {
              "type": "string"
            }
          ],
          "optional": false,
          "required": false
        },
        {
          "name": "iconSize",
          "type": "string",
          "mutable": false,
          "attr": "icon-size",
          "reflectToAttr": false,
          "docs": "Change icn size",
          "docsTags": [],
          "default": "'18px'",
          "values": [
            {
              "type": "string"
            }
          ],
          "optional": false,
          "required": false
        },
        {
          "name": "indeterminate",
          "type": "boolean",
          "mutable": true,
          "attr": "indeterminate",
          "reflectToAttr": true,
          "docs": "If `true`, the checkbox will visually appear as indeterminate.",
          "docsTags": [],
          "default": "false",
          "values": [
            {
              "type": "boolean"
            }
          ],
          "optional": false,
          "required": false
        },
        {
          "name": "name",
          "type": "string",
          "mutable": false,
          "attr": "name",
          "reflectToAttr": false,
          "docs": "The name of the control, which is submitted with the form data.",
          "docsTags": [],
          "default": "this.inputId",
          "values": [
            {
              "type": "string"
            }
          ],
          "optional": false,
          "required": false
        },
        {
          "name": "value",
          "type": "any",
          "mutable": true,
          "attr": "value",
          "reflectToAttr": true,
          "docs": "The value of the checkbox does not mean if it's checked or not, use the `checked`\nproperty for that.\n\nThe value of a checkbox is analogous to the value of an `<input type=\"checkbox\">`,\nit's only used when the checkbox participates in a native `<form>`.",
          "docsTags": [],
          "default": "'on'",
          "values": [
            {
              "type": "any"
            }
          ],
          "optional": false,
          "required": false
        }
      ],
      "methods": [],
      "events": [
        {
          "event": "pdschange",
          "detail": "CheckboxChangeEventDetail<any>",
          "bubbles": true,
          "cancelable": true,
          "composed": true,
          "docs": "Emitted when the checked property has changed\nas a result of a user action such as a click.\nThis event will not emit when programmatically\nsetting the checked property.",
          "docsTags": []
        }
      ],
      "listeners": [],
      "styles": [
        {
          "name": "--background",
          "annotation": "prop",
          "docs": "Background of the checkbox container"
        },
        {
          "name": "--background-checked",
          "annotation": "prop",
          "docs": "Background of the checkbox container when checked"
        },
        {
          "name": "--background-disabled",
          "annotation": "prop",
          "docs": "Background of the checkbox container when disabled"
        },
        {
          "name": "--border",
          "annotation": "prop",
          "docs": "Border style of the checkbox container"
        },
        {
          "name": "--border-checked",
          "annotation": "prop",
          "docs": "Border style of the checkbox container when checked"
        },
        {
          "name": "--border-disabled",
          "annotation": "prop",
          "docs": "Border style of the checkbox container when disabled"
        },
        {
          "name": "--border-radius",
          "annotation": "prop",
          "docs": "Border radius of the checkbox container"
        },
        {
          "name": "--box-shadow-hover",
          "annotation": "prop",
          "docs": "Box shadow of the checkbox container"
        },
        {
          "name": "--checkmark-color-disabled",
          "annotation": "prop",
          "docs": "Color of the checkbox checkmark when disabled"
        },
        {
          "name": "--font",
          "annotation": "prop",
          "docs": "Font with the format: font-style font-variant font-weight font-size/line-height font-family;"
        },
        {
          "name": "--margin-left-label",
          "annotation": "prop",
          "docs": "Margin left of the label"
        },
        {
          "name": "--size",
          "annotation": "prop",
          "docs": "Size of the checkbox container"
        },
        {
          "name": "--transition",
          "annotation": "prop",
          "docs": "Transition of the checkbox icon"
        }
      ],
      "slots": [
        {
          "name": "default",
          "docs": "The label text to associate with the checkbox."
        }
      ],
      "parts": [
        {
          "name": "container",
          "docs": "The container for the checkbox mark."
        },
        {
          "name": "label",
          "docs": ""
        },
        {
          "name": "mark",
          "docs": "The checkmark used to indicate the checked state."
        }
      ],
      "dependents": [],
      "dependencies": [
        "pds-icon"
      ],
      "dependencyGraph": {
        "pds-checkbox": [
          "pds-icon"
        ]
      }
    },
    {
      "filePath": "./src/components/pds-dropdown/pds-dropdown.tsx",
      "encapsulation": "shadow",
      "tag": "pds-dropdown",
      "readme": "# pds-dropdown\n\n\n",
      "docs": "",
      "docsTags": [],
      "usage": {},
      "props": [
        {
          "name": "disabled",
          "type": "boolean",
          "mutable": false,
          "attr": "disabled",
          "reflectToAttr": false,
          "docs": "Indica si el Dropdown está deshabilitado.",
          "docsTags": [],
          "values": [
            {
              "type": "boolean"
            }
          ],
          "optional": false,
          "required": false
        },
        {
          "name": "label",
          "type": "string",
          "mutable": false,
          "attr": "label",
          "reflectToAttr": false,
          "docs": "Etiqueta del Dropdown.",
          "docsTags": [],
          "values": [
            {
              "type": "string"
            }
          ],
          "optional": false,
          "required": false
        },
        {
          "name": "placeholder",
          "type": "string",
          "mutable": false,
          "attr": "placeholder",
          "reflectToAttr": false,
          "docs": "Texto del marcador de posición del Dropdown.",
          "docsTags": [],
          "default": "'Placeholder text here'",
          "values": [
            {
              "type": "string"
            }
          ],
          "optional": false,
          "required": false
        },
        {
          "name": "text",
          "type": "string",
          "mutable": false,
          "attr": "text",
          "reflectToAttr": false,
          "docs": "Texto descriptivo del Dropdown.",
          "docsTags": [],
          "values": [
            {
              "type": "string"
            }
          ],
          "optional": false,
          "required": false
        }
      ],
      "methods": [],
      "events": [
        {
          "event": "valueChange",
          "detail": "string",
          "bubbles": true,
          "cancelable": true,
          "composed": true,
          "docs": "",
          "docsTags": []
        }
      ],
      "listeners": [],
      "styles": [],
      "slots": [],
      "parts": [],
      "dependents": [],
      "dependencies": [
        "pds-icon"
      ],
      "dependencyGraph": {
        "pds-dropdown": [
          "pds-icon"
        ]
      }
    },
    {
      "filePath": "./src/components/pds-dropdown-option/pds-dropdown-option.tsx",
      "encapsulation": "none",
      "tag": "pds-dropdown-option",
      "readme": "# pds-dropdown-option\n\n\n",
      "docs": "",
      "docsTags": [],
      "usage": {},
      "props": [
        {
          "name": "theme",
          "type": "\"dark\" | \"light\"",
          "mutable": false,
          "attr": "theme",
          "reflectToAttr": true,
          "docs": "",
          "docsTags": [],
          "default": "'light'",
          "values": [
            {
              "value": "dark",
              "type": "string"
            },
            {
              "value": "light",
              "type": "string"
            }
          ],
          "optional": false,
          "required": false
        },
        {
          "name": "value",
          "type": "string",
          "mutable": false,
          "attr": "value",
          "reflectToAttr": false,
          "docs": "",
          "docsTags": [],
          "values": [
            {
              "type": "string"
            }
          ],
          "optional": false,
          "required": false
        }
      ],
      "methods": [],
      "events": [],
      "listeners": [],
      "styles": [],
      "slots": [],
      "parts": [],
      "dependents": [],
      "dependencies": [],
      "dependencyGraph": {}
    },
    {
      "filePath": "./src/components/pds-filter/pds-filter.tsx",
      "encapsulation": "shadow",
      "tag": "pds-filter",
      "readme": "# pds-filter\n\n\n",
      "docs": "",
      "docsTags": [],
      "usage": {},
      "props": [],
      "methods": [],
      "events": [],
      "listeners": [],
      "styles": [],
      "slots": [],
      "parts": [],
      "dependents": [],
      "dependencies": [],
      "dependencyGraph": {}
    },
    {
      "filePath": "./src/components/pds-icon/pds-icon.tsx",
      "encapsulation": "none",
      "tag": "pds-icon",
      "readme": "# pds-icon\n\n\n",
      "docs": "",
      "docsTags": [],
      "usage": {},
      "props": [
        {
          "name": "color",
          "type": "string",
          "mutable": true,
          "attr": "color",
          "reflectToAttr": false,
          "docs": "Color del icono (opcional, valor predeterminado: 'black')",
          "docsTags": [],
          "values": [
            {
              "type": "string"
            }
          ],
          "optional": true,
          "required": false
        },
        {
          "name": "name",
          "type": "string",
          "mutable": false,
          "attr": "name",
          "reflectToAttr": false,
          "docs": "Nombre del icono",
          "docsTags": [],
          "values": [
            {
              "type": "string"
            }
          ],
          "optional": false,
          "required": false
        },
        {
          "name": "size",
          "type": "string",
          "mutable": true,
          "attr": "size",
          "reflectToAttr": false,
          "docs": "Tamaño del icono (opcional, valor predeterminado: '24px')",
          "docsTags": [],
          "default": "'16px'",
          "values": [
            {
              "type": "string"
            }
          ],
          "optional": true,
          "required": false
        }
      ],
      "methods": [],
      "events": [
        {
          "event": "iconClick",
          "detail": "any",
          "bubbles": true,
          "cancelable": true,
          "composed": true,
          "docs": "",
          "docsTags": []
        }
      ],
      "listeners": [],
      "styles": [],
      "slots": [],
      "parts": [],
      "dependents": [
        "pds-accordion",
        "pds-checkbox",
        "pds-dropdown",
        "pds-input",
        "pds-pagination",
        "pds-toast"
      ],
      "dependencies": [],
      "dependencyGraph": {
        "pds-accordion": [
          "pds-icon"
        ],
        "pds-checkbox": [
          "pds-icon"
        ],
        "pds-dropdown": [
          "pds-icon"
        ],
        "pds-input": [
          "pds-icon"
        ],
        "pds-pagination": [
          "pds-icon"
        ],
        "pds-toast": [
          "pds-icon"
        ]
      }
    },
    {
      "filePath": "./src/components/pds-icon-button/pds-icon-button.tsx",
      "encapsulation": "none",
      "tag": "pds-icon-button",
      "readme": "# pds-icon\n\n\n",
      "docs": "",
      "docsTags": [],
      "usage": {},
      "props": [
        {
          "name": "actionClick",
          "type": "Function",
          "mutable": false,
          "reflectToAttr": false,
          "docs": "",
          "docsTags": [],
          "values": [
            {
              "type": "Function"
            }
          ],
          "optional": false,
          "required": false
        },
        {
          "name": "disabled",
          "type": "boolean",
          "mutable": false,
          "attr": "disabled",
          "reflectToAttr": false,
          "docs": "",
          "docsTags": [],
          "default": "false",
          "values": [
            {
              "type": "boolean"
            }
          ],
          "optional": false,
          "required": false
        },
        {
          "name": "name",
          "type": "string",
          "mutable": false,
          "attr": "name",
          "reflectToAttr": false,
          "docs": "",
          "docsTags": [],
          "values": [
            {
              "type": "string"
            }
          ],
          "optional": false,
          "required": false
        }
      ],
      "methods": [],
      "events": [],
      "listeners": [],
      "styles": [],
      "slots": [],
      "parts": [],
      "dependents": [],
      "dependencies": [],
      "dependencyGraph": {}
    },
    {
      "filePath": "./src/components/pds-input/pds-input.tsx",
      "encapsulation": "shadow",
      "tag": "pds-input",
      "readme": "# pds-input\n\n\n",
      "docs": "",
      "docsTags": [],
      "usage": {},
      "props": [
        {
          "name": "aspect",
          "type": "string",
          "mutable": false,
          "attr": "aspect",
          "reflectToAttr": false,
          "docs": "Viasual aspect of the input (error, success, default)",
          "docsTags": [],
          "values": [
            {
              "type": "string"
            }
          ],
          "optional": false,
          "required": false
        },
        {
          "name": "disabled",
          "type": "boolean",
          "mutable": false,
          "attr": "disabled",
          "reflectToAttr": false,
          "docs": "It indicates if input is disabled or enabled",
          "docsTags": [],
          "values": [
            {
              "type": "boolean"
            }
          ],
          "optional": true,
          "required": false
        },
        {
          "name": "help",
          "type": "string",
          "mutable": false,
          "attr": "help",
          "reflectToAttr": false,
          "docs": "String to help users. Short description of input",
          "docsTags": [],
          "values": [
            {
              "type": "string"
            }
          ],
          "optional": true,
          "required": false
        },
        {
          "name": "icon",
          "type": "string",
          "mutable": false,
          "attr": "icon",
          "reflectToAttr": false,
          "docs": "Name of the icon. It uses pds-icon as element",
          "docsTags": [],
          "values": [
            {
              "type": "string"
            }
          ],
          "optional": true,
          "required": false
        },
        {
          "name": "iconColor",
          "type": "string",
          "mutable": false,
          "attr": "icon-color",
          "reflectToAttr": false,
          "docs": "Color",
          "docsTags": [],
          "values": [
            {
              "type": "string"
            }
          ],
          "optional": true,
          "required": false
        },
        {
          "name": "label",
          "type": "string",
          "mutable": false,
          "attr": "label",
          "reflectToAttr": false,
          "docs": "The label of the input",
          "docsTags": [],
          "values": [
            {
              "type": "string"
            }
          ],
          "optional": true,
          "required": false
        },
        {
          "name": "maxlength",
          "type": "number",
          "mutable": false,
          "attr": "maxlength",
          "reflectToAttr": false,
          "docs": "Cantidad maxima de caracteres.",
          "docsTags": [],
          "values": [
            {
              "type": "number"
            }
          ],
          "optional": true,
          "required": false
        },
        {
          "name": "placeholder",
          "type": "string",
          "mutable": false,
          "attr": "placeholder",
          "reflectToAttr": false,
          "docs": "Placheholder for input",
          "docsTags": [],
          "values": [
            {
              "type": "string"
            }
          ],
          "optional": true,
          "required": false
        },
        {
          "name": "type",
          "type": "string",
          "mutable": false,
          "attr": "type",
          "reflectToAttr": false,
          "docs": "Use this method to set focus on the element in runtime",
          "docsTags": [],
          "default": "'text'",
          "values": [
            {
              "type": "string"
            }
          ],
          "optional": false,
          "required": false
        },
        {
          "name": "value",
          "type": "string",
          "mutable": true,
          "attr": "value",
          "reflectToAttr": false,
          "docs": "Property to set the value of the input. Devs can set new values in runtime",
          "docsTags": [],
          "default": "''",
          "values": [
            {
              "type": "string"
            }
          ],
          "optional": false,
          "required": false
        }
      ],
      "methods": [
        {
          "name": "setFocus",
          "returns": {
            "type": "Promise<void>",
            "docs": ""
          },
          "signature": "setFocus() => Promise<void>",
          "parameters": [],
          "docs": "",
          "docsTags": []
        }
      ],
      "events": [
        {
          "event": "ponChange",
          "detail": "InputChangeEventDetail",
          "bubbles": true,
          "cancelable": true,
          "composed": true,
          "docs": "",
          "docsTags": []
        },
        {
          "event": "ponIconClick",
          "detail": "any",
          "bubbles": true,
          "cancelable": true,
          "composed": true,
          "docs": "",
          "docsTags": []
        },
        {
          "event": "ponInput",
          "detail": "InputChangeEventDetail",
          "bubbles": true,
          "cancelable": true,
          "composed": true,
          "docs": "",
          "docsTags": []
        }
      ],
      "listeners": [],
      "styles": [],
      "slots": [],
      "parts": [],
      "dependents": [],
      "dependencies": [
        "pds-icon"
      ],
      "dependencyGraph": {
        "pds-input": [
          "pds-icon"
        ]
      }
    },
    {
      "filePath": "./src/components/pds-loading/pds-loading.tsx",
      "encapsulation": "shadow",
      "tag": "pds-loading",
      "readme": "# pds-loading\n\n\n",
      "docs": "",
      "docsTags": [],
      "usage": {},
      "props": [],
      "methods": [],
      "events": [],
      "listeners": [],
      "styles": [],
      "slots": [],
      "parts": [],
      "dependents": [],
      "dependencies": [],
      "dependencyGraph": {}
    },
    {
      "filePath": "./src/components/pds-pagination/pds-pagination.tsx",
      "encapsulation": "shadow",
      "tag": "pds-pagination",
      "readme": "# pds-pagination\n\n\n",
      "docs": "",
      "docsTags": [],
      "usage": {},
      "props": [
        {
          "name": "currentPage",
          "type": "number",
          "mutable": false,
          "attr": "current-page",
          "reflectToAttr": false,
          "docs": "Número de página actual.",
          "docsTags": [],
          "values": [
            {
              "type": "number"
            }
          ],
          "optional": false,
          "required": false
        },
        {
          "name": "itemsPerPage",
          "type": "number",
          "mutable": false,
          "attr": "items-per-page",
          "reflectToAttr": false,
          "docs": "Número de elementos por página.",
          "docsTags": [],
          "values": [
            {
              "type": "number"
            }
          ],
          "optional": false,
          "required": false
        },
        {
          "name": "totalItems",
          "type": "number",
          "mutable": false,
          "attr": "total-items",
          "reflectToAttr": false,
          "docs": "Número total de elementos.",
          "docsTags": [],
          "values": [
            {
              "type": "number"
            }
          ],
          "optional": false,
          "required": false
        }
      ],
      "methods": [],
      "events": [
        {
          "event": "pageChange",
          "detail": "number",
          "bubbles": true,
          "cancelable": true,
          "composed": true,
          "docs": "",
          "docsTags": []
        }
      ],
      "listeners": [],
      "styles": [],
      "slots": [],
      "parts": [],
      "dependents": [],
      "dependencies": [
        "pds-icon"
      ],
      "dependencyGraph": {
        "pds-pagination": [
          "pds-icon"
        ]
      }
    },
    {
      "filePath": "./src/components/pds-radio/pds-radio.tsx",
      "encapsulation": "shadow",
      "tag": "pds-radio",
      "readme": "# pds-radio\n\n\n",
      "docs": "",
      "docsTags": [],
      "usage": {},
      "props": [
        {
          "name": "checked",
          "type": "boolean",
          "mutable": false,
          "attr": "checked",
          "reflectToAttr": true,
          "docs": "Indica si el Radio Button está seleccionado de forma predeterminada.",
          "docsTags": [],
          "default": "false",
          "values": [
            {
              "type": "boolean"
            }
          ],
          "optional": false,
          "required": false
        },
        {
          "name": "disabled",
          "type": "boolean",
          "mutable": false,
          "attr": "disabled",
          "reflectToAttr": true,
          "docs": "Indica si el Radio Button está deshabilitado.",
          "docsTags": [],
          "values": [
            {
              "type": "boolean"
            }
          ],
          "optional": false,
          "required": false
        },
        {
          "name": "value",
          "type": "string",
          "mutable": false,
          "attr": "value",
          "reflectToAttr": true,
          "docs": "Valor del Radio Button.",
          "docsTags": [],
          "values": [
            {
              "type": "string"
            }
          ],
          "optional": false,
          "required": false
        }
      ],
      "methods": [],
      "events": [
        {
          "event": "radioButtonSelected",
          "detail": "{ value: string; selected: boolean; }",
          "bubbles": true,
          "cancelable": true,
          "composed": true,
          "docs": "",
          "docsTags": []
        }
      ],
      "listeners": [],
      "styles": [],
      "slots": [],
      "parts": [],
      "dependents": [],
      "dependencies": [],
      "dependencyGraph": {}
    },
    {
      "filePath": "./src/components/pds-search/pds-search.tsx",
      "encapsulation": "shadow",
      "tag": "pds-search",
      "readme": "# pds-search\n\n\n",
      "docs": "",
      "docsTags": [],
      "usage": {},
      "props": [],
      "methods": [],
      "events": [],
      "listeners": [],
      "styles": [],
      "slots": [],
      "parts": [],
      "dependents": [],
      "dependencies": [],
      "dependencyGraph": {}
    },
    {
      "filePath": "./src/components/pds-stepper/pds-stepper.tsx",
      "encapsulation": "shadow",
      "tag": "pds-stepper",
      "readme": "# pds-stepper\n\n\n",
      "docs": "",
      "docsTags": [],
      "usage": {},
      "props": [],
      "methods": [],
      "events": [],
      "listeners": [],
      "styles": [],
      "slots": [],
      "parts": [],
      "dependents": [],
      "dependencies": [],
      "dependencyGraph": {}
    },
    {
      "filePath": "./src/components/pds-tab/pds-tab.tsx",
      "encapsulation": "shadow",
      "tag": "pds-tab",
      "readme": "# pds-tab\n\n\n",
      "docs": "",
      "docsTags": [],
      "usage": {},
      "props": [],
      "methods": [],
      "events": [],
      "listeners": [],
      "styles": [],
      "slots": [],
      "parts": [],
      "dependents": [],
      "dependencies": [],
      "dependencyGraph": {}
    },
    {
      "filePath": "./src/components/pds-tables/pds-tables.tsx",
      "encapsulation": "shadow",
      "tag": "pds-tables",
      "readme": "# pds-tables\n\n\n",
      "docs": "",
      "docsTags": [],
      "usage": {},
      "props": [],
      "methods": [],
      "events": [],
      "listeners": [],
      "styles": [],
      "slots": [],
      "parts": [],
      "dependents": [],
      "dependencies": [],
      "dependencyGraph": {}
    },
    {
      "filePath": "./src/components/pds-tags/pds-tags.tsx",
      "encapsulation": "shadow",
      "tag": "pds-tags",
      "readme": "# pds-tags\n\n\n",
      "docs": "",
      "docsTags": [],
      "usage": {},
      "props": [],
      "methods": [],
      "events": [],
      "listeners": [],
      "styles": [],
      "slots": [],
      "parts": [],
      "dependents": [],
      "dependencies": [],
      "dependencyGraph": {}
    },
    {
      "filePath": "./src/components/pds-textarea/pds-textarea.tsx",
      "encapsulation": "shadow",
      "tag": "pds-textarea",
      "readme": "# pds-textarea\n\n\n",
      "docs": "",
      "docsTags": [],
      "usage": {},
      "props": [
        {
          "name": "descTxt",
          "type": "string",
          "mutable": false,
          "attr": "desc-txt",
          "reflectToAttr": true,
          "docs": "Texto descriptivo para el campo de texto.",
          "docsTags": [],
          "default": "\"\"",
          "values": [
            {
              "type": "string"
            }
          ],
          "optional": false,
          "required": false
        },
        {
          "name": "disableResize",
          "type": "boolean",
          "mutable": false,
          "attr": "disable-resize",
          "reflectToAttr": false,
          "docs": "Indica si se debe deshabilitar el redimensionamiento.",
          "docsTags": [],
          "default": "false",
          "values": [
            {
              "type": "boolean"
            }
          ],
          "optional": true,
          "required": false
        },
        {
          "name": "labelTxt",
          "type": "string",
          "mutable": false,
          "attr": "label-txt",
          "reflectToAttr": true,
          "docs": "Texto de etiqueta para el campo de texto.",
          "docsTags": [],
          "default": "\"\"",
          "values": [
            {
              "type": "string"
            }
          ],
          "optional": false,
          "required": false
        },
        {
          "name": "maxlength",
          "type": "number",
          "mutable": false,
          "attr": "maxlength",
          "reflectToAttr": false,
          "docs": "Cantidad maxima de caracteres.",
          "docsTags": [],
          "values": [
            {
              "type": "number"
            }
          ],
          "optional": true,
          "required": false
        },
        {
          "name": "placeholderTxt",
          "type": "string",
          "mutable": false,
          "attr": "placeholder-txt",
          "reflectToAttr": true,
          "docs": "Texto de marcador de posición para el campo de texto.",
          "docsTags": [],
          "default": "\"\"",
          "values": [
            {
              "type": "string"
            }
          ],
          "optional": false,
          "required": false
        },
        {
          "name": "type",
          "type": "\"Basic\" | \"Disabled\" | \"Error\" | \"Success\"",
          "mutable": false,
          "attr": "type",
          "reflectToAttr": true,
          "docs": "Tipo de estilo del campo de texto.",
          "docsTags": [],
          "default": "\"Basic\"",
          "values": [
            {
              "value": "Basic",
              "type": "string"
            },
            {
              "value": "Disabled",
              "type": "string"
            },
            {
              "value": "Error",
              "type": "string"
            },
            {
              "value": "Success",
              "type": "string"
            }
          ],
          "optional": false,
          "required": false
        },
        {
          "name": "value",
          "type": "string",
          "mutable": false,
          "attr": "value",
          "reflectToAttr": true,
          "docs": "Valor del campo de texto.",
          "docsTags": [],
          "default": "\"\"",
          "values": [
            {
              "type": "string"
            }
          ],
          "optional": false,
          "required": false
        }
      ],
      "methods": [
        {
          "name": "setFocus",
          "returns": {
            "type": "Promise<void>",
            "docs": ""
          },
          "signature": "setFocus() => Promise<void>",
          "parameters": [],
          "docs": "",
          "docsTags": []
        }
      ],
      "events": [
        {
          "event": "ponChange",
          "detail": "any",
          "bubbles": true,
          "cancelable": true,
          "composed": true,
          "docs": "",
          "docsTags": []
        },
        {
          "event": "ponInput",
          "detail": "any",
          "bubbles": true,
          "cancelable": true,
          "composed": true,
          "docs": "",
          "docsTags": []
        }
      ],
      "listeners": [],
      "styles": [],
      "slots": [],
      "parts": [],
      "dependents": [],
      "dependencies": [],
      "dependencyGraph": {}
    },
    {
      "filePath": "./src/components/pds-toast/pds-toast.tsx",
      "encapsulation": "shadow",
      "tag": "pds-toast",
      "readme": "# pds-toast\n\n\n",
      "docs": "",
      "docsTags": [],
      "usage": {},
      "props": [
        {
          "name": "closeColorIcon",
          "type": "string",
          "mutable": false,
          "attr": "close-color-icon",
          "reflectToAttr": false,
          "docs": "",
          "docsTags": [],
          "default": "'#fff'",
          "values": [
            {
              "type": "string"
            }
          ],
          "optional": false,
          "required": false
        },
        {
          "name": "closeNameIcon",
          "type": "string",
          "mutable": false,
          "attr": "close-name-icon",
          "reflectToAttr": false,
          "docs": "",
          "docsTags": [],
          "default": "'x-b'",
          "values": [
            {
              "type": "string"
            }
          ],
          "optional": false,
          "required": false
        },
        {
          "name": "closeSizeIcon",
          "type": "string",
          "mutable": false,
          "attr": "close-size-icon",
          "reflectToAttr": false,
          "docs": "",
          "docsTags": [],
          "default": "'16px'",
          "values": [
            {
              "type": "string"
            }
          ],
          "optional": false,
          "required": false
        },
        {
          "name": "colorIcon",
          "type": "string",
          "mutable": false,
          "attr": "color-icon",
          "reflectToAttr": false,
          "docs": "",
          "docsTags": [],
          "default": "'#fff'",
          "values": [
            {
              "type": "string"
            }
          ],
          "optional": false,
          "required": false
        },
        {
          "name": "message",
          "type": "string",
          "mutable": false,
          "attr": "message",
          "reflectToAttr": false,
          "docs": "Mensaje adicional del Toast.",
          "docsTags": [],
          "values": [
            {
              "type": "string"
            }
          ],
          "optional": false,
          "required": false
        },
        {
          "name": "nameIcon",
          "type": "string",
          "mutable": false,
          "attr": "name-icon",
          "reflectToAttr": false,
          "docs": "",
          "docsTags": [],
          "default": "'check-b'",
          "values": [
            {
              "type": "string"
            }
          ],
          "optional": false,
          "required": false
        },
        {
          "name": "sizeIcon",
          "type": "string",
          "mutable": false,
          "attr": "size-icon",
          "reflectToAttr": false,
          "docs": "",
          "docsTags": [],
          "default": "'16px'",
          "values": [
            {
              "type": "string"
            }
          ],
          "optional": false,
          "required": false
        },
        {
          "name": "text",
          "type": "string",
          "mutable": false,
          "attr": "text",
          "reflectToAttr": false,
          "docs": "Titulo del Toast.",
          "docsTags": [],
          "values": [
            {
              "type": "string"
            }
          ],
          "optional": false,
          "required": false
        },
        {
          "name": "type",
          "type": "\"alert\" | \"error\" | \"information\" | \"success\"",
          "mutable": false,
          "attr": "type",
          "reflectToAttr": true,
          "docs": "Tipo de Toast (error, success, alert, information).",
          "docsTags": [],
          "default": "'success'",
          "values": [
            {
              "value": "alert",
              "type": "string"
            },
            {
              "value": "error",
              "type": "string"
            },
            {
              "value": "information",
              "type": "string"
            },
            {
              "value": "success",
              "type": "string"
            }
          ],
          "optional": false,
          "required": false
        }
      ],
      "methods": [],
      "events": [
        {
          "event": "ponIconClick",
          "detail": "any",
          "bubbles": true,
          "cancelable": true,
          "composed": true,
          "docs": "",
          "docsTags": []
        }
      ],
      "listeners": [],
      "styles": [],
      "slots": [],
      "parts": [],
      "dependents": [],
      "dependencies": [
        "pds-icon"
      ],
      "dependencyGraph": {
        "pds-toast": [
          "pds-icon"
        ]
      }
    },
    {
      "filePath": "./src/components/pds-toggle/pds-toggle.tsx",
      "encapsulation": "shadow",
      "tag": "pds-toggle",
      "readme": "# pds-toggle\n\n\n",
      "docs": "",
      "docsTags": [],
      "usage": {},
      "props": [
        {
          "name": "checked",
          "type": "boolean",
          "mutable": true,
          "attr": "checked",
          "reflectToAttr": true,
          "docs": "Estado del Toggle (activado o desactivado).",
          "docsTags": [],
          "default": "false",
          "values": [
            {
              "type": "boolean"
            }
          ],
          "optional": false,
          "required": false
        },
        {
          "name": "checkedColor",
          "type": "string",
          "mutable": false,
          "attr": "checked-color",
          "reflectToAttr": false,
          "docs": "Color del Toggle cuando está activado.",
          "docsTags": [],
          "default": "''",
          "values": [
            {
              "type": "string"
            }
          ],
          "optional": false,
          "required": false
        },
        {
          "name": "disabled",
          "type": "boolean",
          "mutable": false,
          "attr": "disabled",
          "reflectToAttr": true,
          "docs": "Indica si el Toggle está deshabilitado.",
          "docsTags": [],
          "default": "false",
          "values": [
            {
              "type": "boolean"
            }
          ],
          "optional": false,
          "required": false
        },
        {
          "name": "inputId",
          "type": "string",
          "mutable": false,
          "attr": "input-id",
          "reflectToAttr": false,
          "docs": "ID del elemento de entrada (input).",
          "docsTags": [],
          "default": "''",
          "values": [
            {
              "type": "string"
            }
          ],
          "optional": false,
          "required": false
        },
        {
          "name": "inputName",
          "type": "string",
          "mutable": false,
          "attr": "input-name",
          "reflectToAttr": false,
          "docs": "Nombre del elemento de entrada (input).",
          "docsTags": [],
          "default": "''",
          "values": [
            {
              "type": "string"
            }
          ],
          "optional": false,
          "required": false
        }
      ],
      "methods": [],
      "events": [
        {
          "event": "pdschange",
          "detail": "boolean",
          "bubbles": true,
          "cancelable": true,
          "composed": true,
          "docs": "",
          "docsTags": []
        }
      ],
      "listeners": [],
      "styles": [],
      "slots": [],
      "parts": [],
      "dependents": [],
      "dependencies": [],
      "dependencyGraph": {}
    },
    {
      "filePath": "./src/components/pds-tooltip/pds-tooltip.tsx",
      "encapsulation": "shadow",
      "tag": "pds-tooltip",
      "readme": "# pds-tooltip\n\n\n",
      "docs": "",
      "docsTags": [],
      "usage": {},
      "props": [
        {
          "name": "position",
          "type": "\"bottom\" | \"left\" | \"right\" | \"top\"",
          "mutable": false,
          "attr": "position",
          "reflectToAttr": true,
          "docs": "",
          "docsTags": [],
          "default": "'bottom'",
          "values": [
            {
              "value": "bottom",
              "type": "string"
            },
            {
              "value": "left",
              "type": "string"
            },
            {
              "value": "right",
              "type": "string"
            },
            {
              "value": "top",
              "type": "string"
            }
          ],
          "optional": false,
          "required": false
        },
        {
          "name": "theme",
          "type": "\"dark\" | \"light\"",
          "mutable": false,
          "attr": "theme",
          "reflectToAttr": true,
          "docs": "",
          "docsTags": [],
          "default": "'light'",
          "values": [
            {
              "value": "dark",
              "type": "string"
            },
            {
              "value": "light",
              "type": "string"
            }
          ],
          "optional": false,
          "required": false
        }
      ],
      "methods": [],
      "events": [],
      "listeners": [],
      "styles": [],
      "slots": [],
      "parts": [],
      "dependents": [],
      "dependencies": [],
      "dependencyGraph": {}
    }
  ]
}